Hypothesis Test
…
## 
##  Pearson's Chi-squared test
## 
## data:  table(dat_clean3$level_of_offense, dat_clean3$susp_age_group)
## X-squared = 2763.4, df = 8, p-value < 2.2e-16

Conclusion:

At significance level 0.05, since p-value < 2.2e-16 < 0.05,we reject the null hypothesis and conclude that there is association between level of offense and suspect’s age group.

After doing the chi-square to the relationship between suspect age group,suspect gender, suspect race and their level of offense, we could conclude that there do exist relationships, and the relationships are significant. It suggests further regression analysis could be done to describe the specific relationship between suspect age group,suspect gender, suspect race and their level of offense.

ANOVA test

## # A tibble: 366 × 7
## # Groups:   month, day [366]
##    month day   BRONX BROOKLYN MANHATTAN QUEENS `STATEN ISLAND`
##    <chr> <chr> <int>    <int>     <int>  <int>           <int>
##  1 01    01      354      527       396    383              70
##  2 01    02      283      362       343    265              36
##  3 01    03      273      363       305    267              50
##  4 01    04      264      314       282    205              46
##  5 01    05      271      304       254    234              57
##  6 01    06      271      337       304    190              54
##  7 01    07      257      337       298    237              61
##  8 01    08      273      302       316    234              57
##  9 01    09      278      349       310    235              40
## 10 01    10      292      386       327    276              56
## # … with 356 more rows
…
