Regression Analysis
…
clean_regression

## # A tibble: 159,934 × 29
##     ...1 month day    year exact_crime_time precinct_of_crime ky_cd
##    <dbl> <chr> <chr> <dbl> <time>                       <dbl> <dbl>
##  1    19 11    20     2020 17:25                           44   578
##  2    23 11    16     2020 14:00                           77   578
##  3    27 11    09     2020 12:44                           47   106
##  4    31 11    06     2020 12:23                            9   578
##  5    38 10    05     2020 16:23                           47   352
##  6    40 10    12     2020 23:58                           43   113
##  7    44 10    11     2020 22:20                           14   233
##  8    49 10    13     2020 14:30                           47   106
##  9    50 09    24     2020 07:20                           77   578
## 10    51 10    13     2020 21:23                           43   118
## # … with 159,924 more rows, and 22 more variables: description_of_crime <chr>,
## #   pd_cd <dbl>, pd_desc <chr>, completed_or_not <chr>, level_of_offense <ord>,
## #   name_of_borough <chr>, description_of_premises <chr>, juris_desc <chr>,
## #   jurisdiction_code <dbl>, parks_nm <chr>, hadevelopt <chr>,
## #   susp_age_group <fct>, susp_race <fct>, susp_sex <fct>,
## #   transit_district <dbl>, latitude <dbl>, longitude <dbl>, lat_lon <chr>,
## #   station_name <chr>, vic_age_group <chr>, vic_race <chr>, vic_sex <chr>
…
